{
    "name": "Cronjob Manager",
    "description": "Simple cronjob manager",
    "author": "LoRdCoStE",
    "url": "",
    "version": "1.0.0",
    "config": {

    },
    "provide": [

    ],
    "autoload": [

    ]
}